{
  "project_info": {
    "project_number": "236736919629",
    "firebase_url": "https://ibox-2d0d5.firebaseio.com",
    "project_id": "ibox-2d0d5",
    "storage_bucket": "ibox-2d0d5.appspot.com"
  },
  "client": [
    {
      "client_info": {
        "mobilesdk_app_id": "1:236736919629:android:b31fdcddabbe8519c70404",
        "android_client_info": {
          "package_name": "com.example.iboxandroid"
        }
      },
      "oauth_client": [
        {
          "client_id": "236736919629-edvn90fpauetet6av4atb9ips1vuucfj.apps.googleusercontent.com",
          "client_type": 1,
          "android_info": {
            "package_name": "com.example.iboxandroid",
            "certificate_hash": "4c3ae30441c6d0ccd1908859c7f28f2c596ef18b"
          }
        },
        {
          "client_id": "236736919629-s3c3kliehhv9ojdlmp6tn2119tg716qd.apps.googleusercontent.com",
          "client_type": 3
        }
      ],
      "api_key": [
        {
          "current_key": "AIzaSyDK_g0oPMNywyXhafip4k7Ke1J6s5QM4tk"
        }
      ],
      "services": {
        "appinvite_service": {
          "other_platform_oauth_client": [
            {
              "client_id": "236736919629-s3c3kliehhv9ojdlmp6tn2119tg716qd.apps.googleusercontent.com",
              "client_type": 3
            }
          ]
        }
      }
    }
  ],
  "configuration_version": "1"
}